﻿TXT2
SinsArchiveVersion 194
ParticleSimulation
	HasInfiniteLifeTime TRUE
	TotalLifeTime 45.000000
	NumEmitters 1
	EmitterType "Point"
	EmitterContents
		Name "Oxygen"
		Enabled TRUE
		EmitRate 10.000000
		HasInfiniteEmitCount TRUE
		MaxEmitCount 0
		hasEmitIntervals FALSE
		emitIntervalRunDuration 0.000000
		emitIntervalWaitDuration 0.000000
		ParticleLifeTime 3.000000
		ParticleMinStartLinearSpeed 25.000000
		ParticleMaxStartLinearSpeed 25.000000
		ParticleMinStartAngularSpeed 0.000000
		ParticleMaxStartAngularSpeed 0.000000
		ParticleMinStartRotation 0.000000
		ParticleMaxStartRotation 6.283185
		ParticleStartMass 1.000000
		ParticleStartColor ffffffff
		ParticleWidth 50.000000
		ParticleHeight 50.000000
		MeshName ""
		Position [ 0.000000 15.000000 0.000000 ]
		Orientation
			 [ 1.000000 0.000000 0.000000 ]
			 [ 0.000000 -0.000000 -1.000000 ]
			 [ 0.000000 1.000000 -0.000000 ]
		RotateAboutForward -90.000000
		RotateAboutUp 0.000000
		RotateAboutCross 0.000000
		StartTime 0.000000
		HasInfiniteLifeTime TRUE
		TotalLifeTime 0.000000
		BillboardAnchor 0
		ParticleFacing 0
		PipelineEffectID "Particle_NotAdditive.fx"
		AreParticlesAttached FALSE
		numTextures 2
		textureName "X_Explosion_MC"
		textureName ""
		textureAnimationName ""
		textureAnimationSpawnType "RandomFrames"
		textureAnimationOnParticleFPS 0.000000
		ParticlesRotate TRUE
		MeshParticleRotationAxisType 0
		MeshParticleRotationAxis [ 0.000000 0.100000 0.000000 ]
		RotationDirectionType 0
		AngleVariance 0.872665
	NumAffectors 3
	AffectorType "LinearInflate"
	AffectorContents
		Name "Inflate 2"
		Enabled TRUE
		StartTime 0.000000
		HasInfiniteLifeTime TRUE
		TotalLifeTime 0.000000
		UseYoungParticleAffectThreshold FALSE
		YoungParticleAffectThreshold 0.000000
		UseOldParticleAffectThreshold FALSE
		OldParticleAffectThreshold 0.000000
		AffectAttachedParticles TRUE
		numAttachedEmitters 1
		attachedEmitterName "Oxygen"
		WidthInflateRate 10.000000
		HeightInflateRate 10.000000
	AffectorType "Jitter"
	AffectorContents
		Name "Jitter"
		Enabled TRUE
		StartTime 0.000000
		HasInfiniteLifeTime TRUE
		TotalLifeTime 0.000000
		UseYoungParticleAffectThreshold FALSE
		YoungParticleAffectThreshold 0.000000
		UseOldParticleAffectThreshold FALSE
		OldParticleAffectThreshold 0.000000
		AffectAttachedParticles TRUE
		numAttachedEmitters 1
		attachedEmitterName "Oxygen"
		JitterForce 1500.000000
		UseCommonForce FALSE
	AffectorType "Fade"
	AffectorContents
		Name "Fade 2"
		Enabled TRUE
		StartTime 0.000000
		HasInfiniteLifeTime TRUE
		TotalLifeTime 0.000000
		UseYoungParticleAffectThreshold FALSE
		YoungParticleAffectThreshold 0.000000
		UseOldParticleAffectThreshold FALSE
		OldParticleAffectThreshold 0.000000
		AffectAttachedParticles TRUE
		numAttachedEmitters 1
		attachedEmitterName "Oxygen"
		DoFadeOut TRUE
		FadeOutTime 25.000000
		DoFadeIn TRUE
		FadeInTime 1.000000
	length 0.000000
