﻿TXT2
SinsArchiveVersion 194
ParticleSimulation
	HasInfiniteLifeTime TRUE
	TotalLifeTime 10.000000
	NumEmitters 3
	EmitterType "Point"
	EmitterContents
		Name "Missile"
		Enabled TRUE
		EmitRate 1.000000
		HasInfiniteEmitCount FALSE
		MaxEmitCount 1
		hasEmitIntervals FALSE
		emitIntervalRunDuration 0.000000
		emitIntervalWaitDuration 0.000000
		ParticleLifeTime 500.000000
		ParticleMinStartLinearSpeed 0.000000
		ParticleMaxStartLinearSpeed 0.000000
		ParticleMinStartAngularSpeed 0.261799
		ParticleMaxStartAngularSpeed 0.523599
		ParticleMinStartRotation 0.000000
		ParticleMaxStartRotation 6.283185
		ParticleStartMass 1.000000
		ParticleStartColor ff323232
		ParticleWidth 1.000000
		ParticleHeight 1.000000
		MeshName "WeaponMissileApocalypse.mesh"
		Position [ 0.000000 0.000000 11.700000 ]
		Orientation
			 [ 1.000000 0.000000 0.000000 ]
			 [ 0.000000 1.000000 0.000000 ]
			 [ 0.000000 0.000000 1.000000 ]
		RotateAboutForward 0.000000
		RotateAboutUp 0.000000
		RotateAboutCross 0.000000
		StartTime 0.000000
		HasInfiniteLifeTime TRUE
		TotalLifeTime 0.000000
		BillboardAnchor 0
		ParticleFacing 0
		PipelineEffectID "GS_ShadowedShip.fx"
		AreParticlesAttached TRUE
		numTextures 2
		textureName ""
		textureName ""
		textureAnimationName ""
		textureAnimationSpawnType "RandomFrames"
		textureAnimationOnParticleFPS 0.000000
		ParticlesRotate TRUE
		MeshParticleRotationAxisType 0
		MeshParticleRotationAxis [ 0.000000 0.100000 0.000000 ]
		RotationDirectionType 2
		AngleVariance 0.000000
	EmitterType "Point"
	EmitterContents
		Name "Trail"
		Enabled TRUE
		EmitRate 40.000000
		HasInfiniteEmitCount TRUE
		MaxEmitCount 1
		hasEmitIntervals FALSE
		emitIntervalRunDuration 0.000000
		emitIntervalWaitDuration 0.000000
		ParticleLifeTime 1.000000
		ParticleMinStartLinearSpeed -70.000000
		ParticleMaxStartLinearSpeed -70.000000
		ParticleMinStartAngularSpeed 0.000000
		ParticleMaxStartAngularSpeed 0.000000
		ParticleMinStartRotation 0.000000
		ParticleMaxStartRotation 0.000000
		ParticleStartMass 1.000000
		ParticleStartColor ffc0c0c0
		ParticleWidth 6.000000
		ParticleHeight 100.000000
		MeshName ""
		Position [ 0.000000 0.000000 -10.000000 ]
		Orientation
			 [ 1.000000 0.000000 0.000000 ]
			 [ 0.000000 1.000000 0.000000 ]
			 [ 0.000000 0.000000 1.000000 ]
		RotateAboutForward 0.000000
		RotateAboutUp 0.000000
		RotateAboutCross 0.000000
		StartTime 0.300000
		HasInfiniteLifeTime TRUE
		TotalLifeTime 0.000000
		BillboardAnchor 0
		ParticleFacing 1
		PipelineEffectID "GS_Exhaust.fx"
		AreParticlesAttached FALSE
		numTextures 2
		textureName "smoke4.tga"
		textureName "smoke4.tga"
		textureAnimationName ""
		textureAnimationSpawnType "RandomFrames"
		textureAnimationOnParticleFPS 0.000000
		ParticlesRotate FALSE
		MeshParticleRotationAxisType 0
		MeshParticleRotationAxis [ 0.000000 0.100000 0.000000 ]
		RotationDirectionType 2
		AngleVariance 0.000000
	EmitterType "Point"
	EmitterContents
		Name "Engine"
		Enabled TRUE
		EmitRate 1.000000
		HasInfiniteEmitCount FALSE
		MaxEmitCount 1
		hasEmitIntervals FALSE
		emitIntervalRunDuration 0.000000
		emitIntervalWaitDuration 0.000000
		ParticleLifeTime 500.000000
		ParticleMinStartLinearSpeed 0.000000
		ParticleMaxStartLinearSpeed 0.000000
		ParticleMinStartAngularSpeed 0.523599
		ParticleMaxStartAngularSpeed 1.047198
		ParticleMinStartRotation 0.000000
		ParticleMaxStartRotation 6.283185
		ParticleStartMass 1.000000
		ParticleStartColor ffffffff
		ParticleWidth 50.000000
		ParticleHeight 50.000000
		MeshName ""
		Position [ 0.000000 0.000000 6.200000 ]
		Orientation
			 [ 1.000000 0.000000 0.000000 ]
			 [ 0.000000 1.000000 0.000000 ]
			 [ 0.000000 0.000000 1.000000 ]
		RotateAboutForward 0.000000
		RotateAboutUp 0.000000
		RotateAboutCross 0.000000
		StartTime 0.000000
		HasInfiniteLifeTime TRUE
		TotalLifeTime 0.000000
		BillboardAnchor 0
		ParticleFacing 0
		PipelineEffectID "Particle_Additive.fx"
		AreParticlesAttached TRUE
		numTextures 2
		textureName "missileglow05"
		textureName ""
		textureAnimationName ""
		textureAnimationSpawnType "RandomFrames"
		textureAnimationOnParticleFPS 0.000000
		ParticlesRotate FALSE
		MeshParticleRotationAxisType 0
		MeshParticleRotationAxis [ 0.000000 0.100000 0.000000 ]
		RotationDirectionType 2
		AngleVariance 0.000000
	NumAffectors 4
	AffectorType "Fade"
	AffectorContents
		Name "(new) Fade-1"
		Enabled TRUE
		StartTime 0.000000
		HasInfiniteLifeTime TRUE
		TotalLifeTime 0.000000
		UseYoungParticleAffectThreshold FALSE
		YoungParticleAffectThreshold 0.000000
		UseOldParticleAffectThreshold FALSE
		OldParticleAffectThreshold 0.000000
		AffectAttachedParticles TRUE
		numAttachedEmitters 1
		attachedEmitterName "Trail"
		DoFadeOut TRUE
		FadeOutTime 2.000000
		DoFadeIn FALSE
		FadeInTime 1.000000
	AffectorType "RotateAboutAxis"
	AffectorContents
		Name "(new) RotateAboutAxis-1"
		Enabled FALSE
		StartTime 0.000000
		HasInfiniteLifeTime TRUE
		TotalLifeTime 0.000000
		UseYoungParticleAffectThreshold FALSE
		YoungParticleAffectThreshold 0.000000
		UseOldParticleAffectThreshold FALSE
		OldParticleAffectThreshold 0.000000
		AffectAttachedParticles TRUE
		numAttachedEmitters 1
		attachedEmitterName "Trail"
		AngularVelocity 5.000000
		Radius 5.000000
		AxisOfRotation [ 0.000000 0.000000 1.000000 ]
		AxisOrigin [ 0.000000 0.000000 0.000000 ]
	AffectorType "Jitter"
	AffectorContents
		Name "(new) Jitter-1"
		Enabled TRUE
		StartTime 0.000000
		HasInfiniteLifeTime TRUE
		TotalLifeTime 0.000000
		UseYoungParticleAffectThreshold FALSE
		YoungParticleAffectThreshold 0.000000
		UseOldParticleAffectThreshold FALSE
		OldParticleAffectThreshold 0.000000
		AffectAttachedParticles TRUE
		numAttachedEmitters 1
		attachedEmitterName "Trail"
		JitterForce 50.000000
		UseCommonForce TRUE
	AffectorType "SizeOscillator"
	AffectorContents
		Name "(new) SizeOscillator-1"
		Enabled TRUE
		StartTime 0.000000
		HasInfiniteLifeTime TRUE
		TotalLifeTime 0.000000
		UseYoungParticleAffectThreshold FALSE
		YoungParticleAffectThreshold 0.000000
		UseOldParticleAffectThreshold FALSE
		OldParticleAffectThreshold 0.000000
		AffectAttachedParticles TRUE
		numAttachedEmitters 1
		attachedEmitterName "Engine"
		TransitionPeriod 0.400000
		BeginSizeX 2.000000
		BeginSizeY 2.000000
		EndSizeX 2.200000
		EndSizeY 2.200000
	length 0.000000
