﻿TXT
ParticleSimulation
	HasInfiniteLifeTime FALSE
	TotalLifeTime 10.000000
	NumEmitters 2
	EmitterType "Sphere"
	EmitterContents
		Name "Flak"
		Enabled TRUE
		EmitRate 25.000000
		HasInfiniteEmitCount TRUE
		MaxEmitCount 0
		hasEmitIntervals FALSE
		emitIntervalRunDuration 0.000000
		emitIntervalWaitDuration 0.000000
		ParticleLifeTime 0.800000
		ParticleMinStartLinearSpeed 0.000000
		ParticleMaxStartLinearSpeed 0.000000
		ParticleMinStartAngularSpeed 0.000000
		ParticleMaxStartAngularSpeed 0.000000
		ParticleMinStartRotation 0.000000
		ParticleMaxStartRotation 0.000000
		ParticleStartMass 1.000000
		ParticleStartColor ffffffff
		ParticleWidth 20.000000
		ParticleHeight 20.000000
		MeshName ""
		Position [ 0.000000 0.000000 0.000000 ]
		Orientation
			 [ 1.000000 0.000000 0.000000 ]
			 [ 0.000000 1.000000 0.000000 ]
			 [ 0.000000 0.000000 1.000000 ]
		RotateAboutForward 0.000000
		RotateAboutUp 0.000000
		RotateAboutCross 0.000000
		StartTime 0.000000
		HasInfiniteLifeTime FALSE
		TotalLifeTime 0.500000
		BillboardAnchor 0
		ParticleFacing 0
		PipelineEffectID "Particle_Additive.fx"
		AreParticlesAttached FALSE
		numTextures 2
		textureName ""
		textureName ""
		textureAnimationName "ExpMissileHit1.texanim"
		textureAnimationSpawnType "SequentialFrames"
		textureAnimationOnParticleFPS 30.000000
		ParticlesRotate FALSE
		MeshParticleRotationAxisType 0
		MeshParticleRotationAxis [ 0.000000 0.100000 0.000000 ]
		RotationDirectionType 2
		SphereRadiusXMax 200.000000
		SphereRadiusXMin 0.000000
		SphereRadiusYMax 200.000000
		SphereRadiusYMin 0.000000
		SphereRadiusZMax 200.000000
		SphereRadiusZMin 0.000000
		ParticleMaxStartSpeedAzimuthalTangential 0.000000
		ParticleMaxStartSpeedPolarTangential 0.000000
		ScaleStartSpeedsByRadius FALSE
		SpawnAngleLatitudinalStart 0.000000
		SpawnAngleLatitudinalStop 6.283185
		SpawnAngleLongitudinalStart 0.000000
		SpawnAngleLongitudinalStop 6.283185
	EmitterType "Sphere"
	EmitterContents
		Name "Flak2"
		Enabled TRUE
		EmitRate 25.000000
		HasInfiniteEmitCount TRUE
		MaxEmitCount 0
		hasEmitIntervals FALSE
		emitIntervalRunDuration 0.000000
		emitIntervalWaitDuration 0.000000
		ParticleLifeTime 0.800000
		ParticleMinStartLinearSpeed 0.000000
		ParticleMaxStartLinearSpeed 0.000000
		ParticleMinStartAngularSpeed 0.000000
		ParticleMaxStartAngularSpeed 0.000000
		ParticleMinStartRotation 0.000000
		ParticleMaxStartRotation 0.000000
		ParticleStartMass 1.000000
		ParticleStartColor ffffffff
		ParticleWidth 10.000000
		ParticleHeight 10.000000
		MeshName ""
		Position [ 0.000000 0.000000 0.000000 ]
		Orientation
			 [ 1.000000 0.000000 0.000000 ]
			 [ 0.000000 1.000000 0.000000 ]
			 [ 0.000000 0.000000 1.000000 ]
		RotateAboutForward 0.000000
		RotateAboutUp 0.000000
		RotateAboutCross 0.000000
		StartTime 0.000000
		HasInfiniteLifeTime FALSE
		TotalLifeTime 0.500000
		BillboardAnchor 0
		ParticleFacing 0
		PipelineEffectID "Particle_Additive.fx"
		AreParticlesAttached FALSE
		numTextures 2
		textureName ""
		textureName ""
		textureAnimationName "ExpMissileHit1.texanim"
		textureAnimationSpawnType "SequentialFrames"
		textureAnimationOnParticleFPS 30.000000
		ParticlesRotate FALSE
		MeshParticleRotationAxisType 0
		MeshParticleRotationAxis [ 0.000000 0.100000 0.000000 ]
		RotationDirectionType 2
		SphereRadiusXMax 200.000000
		SphereRadiusXMin 0.000000
		SphereRadiusYMax 200.000000
		SphereRadiusYMin 0.000000
		SphereRadiusZMax 200.000000
		SphereRadiusZMin 0.000000
		ParticleMaxStartSpeedAzimuthalTangential 0.000000
		ParticleMaxStartSpeedPolarTangential 0.000000
		ScaleStartSpeedsByRadius FALSE
		SpawnAngleLatitudinalStart 0.000000
		SpawnAngleLatitudinalStop 3.141593
		SpawnAngleLongitudinalStart 0.000000
		SpawnAngleLongitudinalStop 6.283185
	NumAffectors 2
	AffectorType "Fade"
	AffectorContents
		Name "Fade"
		Enabled TRUE
		StartTime 0.000000
		HasInfiniteLifeTime TRUE
		TotalLifeTime 0.000000
		UseYoungParticleAffectThreshold FALSE
		YoungParticleAffectThreshold 0.000000
		UseOldParticleAffectThreshold FALSE
		OldParticleAffectThreshold 0.000000
		AffectAttachedParticles TRUE
		numAttachedEmitters 1
		attachedEmitterName "Flak"
		DoFadeOut TRUE
		FadeOutTime 1.000000
		DoFadeIn FALSE
		FadeInTime 0.500000
	AffectorType "Fade"
	AffectorContents
		Name "Fade2"
		Enabled TRUE
		StartTime 0.000000
		HasInfiniteLifeTime TRUE
		TotalLifeTime 0.000000
		UseYoungParticleAffectThreshold FALSE
		YoungParticleAffectThreshold 0.000000
		UseOldParticleAffectThreshold FALSE
		OldParticleAffectThreshold 0.000000
		AffectAttachedParticles TRUE
		numAttachedEmitters 1
		attachedEmitterName "Flak2"
		DoFadeOut TRUE
		FadeOutTime 0.500000
		DoFadeIn FALSE
		FadeInTime 1.000000
	length 0.000000
