﻿TXT
ParticleSimulation
	HasInfiniteLifeTime FALSE
	TotalLifeTime 10.000000
	NumEmitters 3
	EmitterType "Point"
	EmitterContents
		Name "Beam Muzzle"
		Enabled TRUE
		EmitRate 1.000000
		HasInfiniteEmitCount FALSE
		MaxEmitCount 1
		hasEmitIntervals FALSE
		emitIntervalRunDuration 0.000000
		emitIntervalWaitDuration 0.000000
		ParticleLifeTime 9.150000
		ParticleMinStartLinearSpeed 0.000000
		ParticleMaxStartLinearSpeed 0.000000
		ParticleMinStartAngularSpeed 1.221730
		ParticleMaxStartAngularSpeed 1.221730
		ParticleMinStartRotation 0.000000
		ParticleMaxStartRotation 0.000000
		ParticleStartMass 1.000000
		ParticleStartColor ffffffff
		ParticleWidth 0.000000
		ParticleHeight 0.000000
		MeshName ""
		Position [ 0.000000 0.000000 2.000000 ]
		Orientation
			 [ 1.000000 0.000000 0.000000 ]
			 [ 0.000000 1.000000 0.000000 ]
			 [ 0.000000 0.000000 1.000000 ]
		RotateAboutForward 0.000000
		RotateAboutUp 0.000000
		RotateAboutCross 0.000000
		StartTime 0.000000
		HasInfiniteLifeTime FALSE
		TotalLifeTime 9.150000
		BillboardAnchor 0
		ParticleFacing 0
		PipelineEffectID "Particle_Additive.fx"
		AreParticlesAttached TRUE
		numTextures 2
		textureName "BlueBeamMuzzle.dds"
		textureName ""
		textureAnimationName ""
		textureAnimationSpawnType "RandomFrames"
		textureAnimationOnParticleFPS 0.000000
		ParticlesRotate TRUE
		MeshParticleRotationAxisType 0
		MeshParticleRotationAxis [ 0.000000 0.100000 0.000000 ]
		RotationDirectionType 0
		AngleVariance 0.000000
	EmitterType "Point"
	EmitterContents
		Name "(copy) Beam Muzzle-1"
		Enabled TRUE
		EmitRate 1.000000
		HasInfiniteEmitCount FALSE
		MaxEmitCount 1
		hasEmitIntervals FALSE
		emitIntervalRunDuration 0.000000
		emitIntervalWaitDuration 0.000000
		ParticleLifeTime 9.150000
		ParticleMinStartLinearSpeed 0.000000
		ParticleMaxStartLinearSpeed 0.000000
		ParticleMinStartAngularSpeed 1.221730
		ParticleMaxStartAngularSpeed 1.221730
		ParticleMinStartRotation 0.000000
		ParticleMaxStartRotation 0.000000
		ParticleStartMass 1.000000
		ParticleStartColor ffffffff
		ParticleWidth 0.000000
		ParticleHeight 0.000000
		MeshName ""
		Position [ 0.000000 0.000000 2.000000 ]
		Orientation
			 [ 1.000000 0.000000 0.000000 ]
			 [ 0.000000 1.000000 0.000000 ]
			 [ 0.000000 0.000000 1.000000 ]
		RotateAboutForward 0.000000
		RotateAboutUp 0.000000
		RotateAboutCross 0.000000
		StartTime 0.000000
		HasInfiniteLifeTime FALSE
		TotalLifeTime 9.150000
		BillboardAnchor 0
		ParticleFacing 0
		PipelineEffectID "Particle_Additive.fx"
		AreParticlesAttached TRUE
		numTextures 2
		textureName "BlueBeamMuzzle.dds"
		textureName ""
		textureAnimationName ""
		textureAnimationSpawnType "RandomFrames"
		textureAnimationOnParticleFPS 0.000000
		ParticlesRotate TRUE
		MeshParticleRotationAxisType 0
		MeshParticleRotationAxis [ 0.000000 0.100000 0.000000 ]
		RotationDirectionType 1
		AngleVariance 0.000000
	EmitterType "Sphere"
	EmitterContents
		Name "Shiny Bits"
		Enabled TRUE
		EmitRate 12.000000
		HasInfiniteEmitCount FALSE
		MaxEmitCount 18
		hasEmitIntervals FALSE
		emitIntervalRunDuration 0.000000
		emitIntervalWaitDuration 0.000000
		ParticleLifeTime 2.500000
		ParticleMinStartLinearSpeed -20.000000
		ParticleMaxStartLinearSpeed -20.000000
		ParticleMinStartAngularSpeed 0.000000
		ParticleMaxStartAngularSpeed 0.000000
		ParticleMinStartRotation 0.000000
		ParticleMaxStartRotation 0.000000
		ParticleStartMass 1.000000
		ParticleStartColor ffffffff
		ParticleWidth 4.000000
		ParticleHeight 4.000000
		MeshName ""
		Position [ 0.000000 0.000000 0.000000 ]
		Orientation
			 [ 1.000000 0.000000 0.000000 ]
			 [ 0.000000 1.000000 0.000000 ]
			 [ 0.000000 0.000000 1.000000 ]
		RotateAboutForward 0.000000
		RotateAboutUp 0.000000
		RotateAboutCross 0.000000
		StartTime 0.000000
		HasInfiniteLifeTime TRUE
		TotalLifeTime 0.000000
		BillboardAnchor 0
		ParticleFacing 1
		PipelineEffectID "Particle_Additive.fx"
		AreParticlesAttached TRUE
		numTextures 2
		textureName "ParticleBlue"
		textureName ""
		textureAnimationName ""
		textureAnimationSpawnType "RandomFrames"
		textureAnimationOnParticleFPS 0.000000
		ParticlesRotate FALSE
		MeshParticleRotationAxisType 0
		MeshParticleRotationAxis [ 0.000000 0.100000 0.000000 ]
		RotationDirectionType 0
		SphereRadiusXMax 150.000000
		SphereRadiusXMin 150.000000
		SphereRadiusYMax 150.000000
		SphereRadiusYMin 150.000000
		SphereRadiusZMax 30.000000
		SphereRadiusZMin 0.000000
		ParticleMaxStartSpeedAzimuthalTangential 0.000000
		ParticleMaxStartSpeedPolarTangential 0.000000
		ScaleStartSpeedsByRadius FALSE
		SpawnAngleLatitudinalStart -0.261799
		SpawnAngleLatitudinalStop 0.226893
		SpawnAngleLongitudinalStart 0.000000
		SpawnAngleLongitudinalStop 87.266464
	NumAffectors 5
	AffectorType "Fade"
	AffectorContents
		Name "Muzzle Fade"
		Enabled TRUE
		StartTime 0.000000
		HasInfiniteLifeTime TRUE
		TotalLifeTime 0.000000
		UseYoungParticleAffectThreshold FALSE
		YoungParticleAffectThreshold 0.000000
		UseOldParticleAffectThreshold FALSE
		OldParticleAffectThreshold 0.000000
		AffectAttachedParticles TRUE
		numAttachedEmitters 1
		attachedEmitterName "Beam Muzzle"
		DoFadeOut TRUE
		FadeOutTime 2.000000
		DoFadeIn FALSE
		FadeInTime 1.000000
	AffectorType "LinearInflate"
	AffectorContents
		Name "(new) LinearInflate-1"
		Enabled TRUE
		StartTime 0.000000
		HasInfiniteLifeTime FALSE
		TotalLifeTime 2.500000
		UseYoungParticleAffectThreshold FALSE
		YoungParticleAffectThreshold 0.000000
		UseOldParticleAffectThreshold FALSE
		OldParticleAffectThreshold 0.000000
		AffectAttachedParticles TRUE
		numAttachedEmitters 2
		attachedEmitterName "Beam Muzzle"
		attachedEmitterName "(copy) Beam Muzzle-1"
		WidthInflateRate 30.000000
		HeightInflateRate 30.000000
	AffectorType "LinearInflate"
	AffectorContents
		Name "(new) LinearInflate-2"
		Enabled TRUE
		StartTime 6.500000
		HasInfiniteLifeTime FALSE
		TotalLifeTime 5.150000
		UseYoungParticleAffectThreshold FALSE
		YoungParticleAffectThreshold 0.000000
		UseOldParticleAffectThreshold FALSE
		OldParticleAffectThreshold 0.000000
		AffectAttachedParticles TRUE
		numAttachedEmitters 2
		attachedEmitterName "Beam Muzzle"
		attachedEmitterName "(copy) Beam Muzzle-1"
		WidthInflateRate -28.000000
		HeightInflateRate -28.000000
	AffectorType "KillParticlesNearPoint"
	AffectorContents
		Name "(new) KillParticlesNearPoint-1"
		Enabled TRUE
		StartTime 0.000000
		HasInfiniteLifeTime TRUE
		TotalLifeTime 0.000000
		UseYoungParticleAffectThreshold FALSE
		YoungParticleAffectThreshold 0.000000
		UseOldParticleAffectThreshold FALSE
		OldParticleAffectThreshold 0.000000
		AffectAttachedParticles TRUE
		numAttachedEmitters 1
		attachedEmitterName "Shiny Bits"
		Point [ 0.000000 0.000000 0.000000 ]
		Distance 2.000000
	AffectorType "Fade"
	AffectorContents
		Name "(new) Fade-1"
		Enabled TRUE
		StartTime 0.000000
		HasInfiniteLifeTime TRUE
		TotalLifeTime 0.000000
		UseYoungParticleAffectThreshold FALSE
		YoungParticleAffectThreshold 0.000000
		UseOldParticleAffectThreshold FALSE
		OldParticleAffectThreshold 0.000000
		AffectAttachedParticles TRUE
		numAttachedEmitters 1
		attachedEmitterName "Shiny Bits"
		DoFadeOut TRUE
		FadeOutTime 1.500000
		DoFadeIn FALSE
		FadeInTime 1.000000
	length 0.000000
