﻿TXT
ParticleSimulation
	HasInfiniteLifeTime FALSE
	TotalLifeTime 20.000000
	NumEmitters 3
	EmitterType "Point"
	EmitterContents
		Name "Missile"
		Enabled TRUE
		EmitRate 1.000000
		HasInfiniteEmitCount FALSE
		MaxEmitCount 1
		hasEmitIntervals FALSE
		emitIntervalRunDuration 0.000000
		emitIntervalWaitDuration 0.000000
		ParticleLifeTime 100.000000
		ParticleMinStartLinearSpeed 0.000000
		ParticleMaxStartLinearSpeed 0.000000
		ParticleMinStartAngularSpeed 0.000000
		ParticleMaxStartAngularSpeed 0.000000
		ParticleMinStartRotation 0.000000
		ParticleMaxStartRotation 0.000000
		ParticleStartMass 1.000000
		ParticleStartColor ffffffff
		ParticleWidth 1.000000
		ParticleHeight 1.000000
		MeshName "WeaponMissileApocalypseKaruna"
		Position [ 0.000000 0.000000 0.000000 ]
		Orientation
			 [ 1.000000 0.000000 0.000000 ]
			 [ 0.000000 1.000000 0.000000 ]
			 [ 0.000000 0.000000 1.000000 ]
		RotateAboutForward 0.000000
		RotateAboutUp 0.000000
		RotateAboutCross 0.000000
		StartTime 0.000000
		HasInfiniteLifeTime FALSE
		TotalLifeTime 20.000000
		BillboardAnchor 0
		ParticleFacing 0
		PipelineEffectID "Particle_MeshShadowed.fx"
		AreParticlesAttached TRUE
		numTextures 2
		textureName ""
		textureName ""
		textureAnimationName ""
		textureAnimationSpawnType "RandomFrames"
		textureAnimationOnParticleFPS 0.000000
		ParticlesRotate FALSE
		MeshParticleRotationAxisType 0
		MeshParticleRotationAxis [ 0.000000 0.100000 0.000000 ]
		RotationDirectionType 0
		AngleVariance 0.000000
	EmitterType "Point"
	EmitterContents
		Name "Engine"
		Enabled TRUE
		EmitRate 1.000000
		HasInfiniteEmitCount FALSE
		MaxEmitCount 1
		hasEmitIntervals FALSE
		emitIntervalRunDuration 0.000000
		emitIntervalWaitDuration 0.000000
		ParticleLifeTime 100.000000
		ParticleMinStartLinearSpeed 0.000000
		ParticleMaxStartLinearSpeed 0.000000
		ParticleMinStartAngularSpeed 0.000000
		ParticleMaxStartAngularSpeed 0.000000
		ParticleMinStartRotation 0.000000
		ParticleMaxStartRotation 0.000000
		ParticleStartMass 1.000000
		ParticleStartColor ffffffff
		ParticleWidth 3.000000
		ParticleHeight 3.000000
		MeshName ""
		Position [ 0.000000 0.000000 -2.000000 ]
		Orientation
			 [ 1.000000 0.000000 0.000000 ]
			 [ 0.000000 1.000000 0.000000 ]
			 [ 0.000000 0.000000 1.000000 ]
		RotateAboutForward 0.000000
		RotateAboutUp 0.000000
		RotateAboutCross 0.000000
		StartTime 0.000000
		HasInfiniteLifeTime FALSE
		TotalLifeTime 100.000000
		BillboardAnchor 0
		ParticleFacing 0
		PipelineEffectID "Particle_Additive.fx"
		AreParticlesAttached TRUE
		numTextures 2
		textureName "missileglow02.dds"
		textureName ""
		textureAnimationName ""
		textureAnimationSpawnType "RandomFrames"
		textureAnimationOnParticleFPS 0.000000
		ParticlesRotate FALSE
		MeshParticleRotationAxisType 0
		MeshParticleRotationAxis [ 0.000000 0.000000 0.000000 ]
		RotationDirectionType 0
		AngleVariance 0.000000
	EmitterType "Point"
	EmitterContents
		Name "Trail"
		Enabled TRUE
		EmitRate 1.000000
		HasInfiniteEmitCount FALSE
		MaxEmitCount 1
		hasEmitIntervals FALSE
		emitIntervalRunDuration 0.000000
		emitIntervalWaitDuration 0.000000
		ParticleLifeTime 45.000000
		ParticleMinStartLinearSpeed 0.000000
		ParticleMaxStartLinearSpeed 0.000000
		ParticleMinStartAngularSpeed 0.000000
		ParticleMaxStartAngularSpeed 0.000000
		ParticleMinStartRotation 0.000000
		ParticleMaxStartRotation 0.000000
		ParticleStartMass 1.000000
		ParticleStartColor ffc04000
		ParticleWidth 3.500000
		ParticleHeight 30.000000
		MeshName ""
		Position [ 0.000000 0.000000 -15.000000 ]
		Orientation
			 [ 1.000000 0.000000 0.000000 ]
			 [ 0.000000 1.000000 0.000000 ]
			 [ 0.000000 0.000000 1.000000 ]
		RotateAboutForward 0.000000
		RotateAboutUp 0.000000
		RotateAboutCross 0.000000
		StartTime 0.000000
		HasInfiniteLifeTime TRUE
		TotalLifeTime 0.000000
		BillboardAnchor 0
		ParticleFacing 1
		PipelineEffectID "Particle_Additive.fx"
		AreParticlesAttached TRUE
		numTextures 2
		textureName "acmedium"
		textureName ""
		textureAnimationName ""
		textureAnimationSpawnType "RandomFrames"
		textureAnimationOnParticleFPS 0.000000
		ParticlesRotate FALSE
		MeshParticleRotationAxisType 0
		MeshParticleRotationAxis [ 0.000000 0.000000 0.000000 ]
		RotationDirectionType 0
		AngleVariance 0.000000
	NumAffectors 1
	AffectorType "Fade"
	AffectorContents
		Name ""
		Enabled TRUE
		StartTime 0.000000
		HasInfiniteLifeTime TRUE
		TotalLifeTime 0.000000
		UseYoungParticleAffectThreshold FALSE
		YoungParticleAffectThreshold 0.000000
		UseOldParticleAffectThreshold FALSE
		OldParticleAffectThreshold 0.000000
		AffectAttachedParticles TRUE
		numAttachedEmitters 1
		attachedEmitterName "Engine"
		DoFadeOut TRUE
		FadeOutTime 0.200000
		DoFadeIn FALSE
		FadeInTime 0.000000
	length 0.000000
