﻿TXT
ParticleSimulation
	HasInfiniteLifeTime FALSE
	TotalLifeTime 10.000000
	NumEmitters 2
	EmitterType "Point"
	EmitterContents
		Name "Trail"
		Enabled TRUE
		EmitRate 1.000000
		HasInfiniteEmitCount FALSE
		MaxEmitCount 1
		hasEmitIntervals FALSE
		emitIntervalRunDuration 0.000000
		emitIntervalWaitDuration 0.000000
		ParticleLifeTime 10.000000
		ParticleMinStartLinearSpeed 0.000000
		ParticleMaxStartLinearSpeed 0.000000
		ParticleMinStartAngularSpeed 0.000000
		ParticleMaxStartAngularSpeed 0.000000
		ParticleMinStartRotation 0.000000
		ParticleMaxStartRotation 0.000000
		ParticleStartMass 0.100000
		ParticleStartColor ffffffff
		ParticleWidth 10.000000
		ParticleHeight 600.000000
		MeshName ""
		Position [ 0.000000 0.000000 -305.000000 ]
		Orientation
			 [ 1.000000 0.000000 0.000000 ]
			 [ 0.000000 1.000000 0.000000 ]
			 [ 0.000000 0.000000 1.000000 ]
		RotateAboutForward 0.000000
		RotateAboutUp 0.000000
		RotateAboutCross 0.000000
		StartTime 0.000000
		HasInfiniteLifeTime FALSE
		TotalLifeTime 30.000000
		BillboardAnchor 0
		ParticleFacing 1
		PipelineEffectID "Particle_Additive.fx"
		AreParticlesAttached TRUE
		numTextures 2
		textureName "MissileTrail102.dds"
		textureName ""
		textureAnimationName ""
		textureAnimationSpawnType "RandomFrames"
		textureAnimationOnParticleFPS 0.000000
		ParticlesRotate FALSE
		MeshParticleRotationAxisType 0
		MeshParticleRotationAxis [ 0.000000 0.100000 0.000000 ]
		RotationDirectionType 2
		AngleVariance 0.000000
	EmitterType "Point"
	EmitterContents
		Name "Railgun"
		Enabled TRUE
		EmitRate 1.000000
		HasInfiniteEmitCount FALSE
		MaxEmitCount 1
		hasEmitIntervals FALSE
		emitIntervalRunDuration 0.000000
		emitIntervalWaitDuration 0.000000
		ParticleLifeTime 50.000000
		ParticleMinStartLinearSpeed 0.000000
		ParticleMaxStartLinearSpeed 0.000000
		ParticleMinStartAngularSpeed 0.000000
		ParticleMaxStartAngularSpeed 0.000000
		ParticleMinStartRotation 0.000000
		ParticleMaxStartRotation 0.000000
		ParticleStartMass 1.000000
		ParticleStartColor ffff6e00
		ParticleWidth 30.000000
		ParticleHeight 100.000000
		MeshName ""
		Position [ 0.000000 0.000000 0.000000 ]
		Orientation
			 [ 1.000000 0.000000 0.000000 ]
			 [ 0.000000 1.000000 0.000000 ]
			 [ 0.000000 0.000000 1.000000 ]
		RotateAboutForward 0.000000
		RotateAboutUp 0.000000
		RotateAboutCross 0.000000
		StartTime 0.000000
		HasInfiniteLifeTime TRUE
		TotalLifeTime 0.000000
		BillboardAnchor 0
		ParticleFacing 1
		PipelineEffectID "Particle_Additive.fx"
		AreParticlesAttached TRUE
		numTextures 2
		textureName "railgun.dds"
		textureName ""
		textureAnimationName ""
		textureAnimationSpawnType "RandomFrames"
		textureAnimationOnParticleFPS 0.000000
		ParticlesRotate FALSE
		MeshParticleRotationAxisType 0
		MeshParticleRotationAxis [ 0.000000 0.100000 0.000000 ]
		RotationDirectionType 0
		AngleVariance 0.000000
	NumAffectors 1
	AffectorType "Fade"
	AffectorContents
		Name "(new) Fade-1"
		Enabled TRUE
		StartTime 0.000000
		HasInfiniteLifeTime TRUE
		TotalLifeTime 0.000000
		UseYoungParticleAffectThreshold FALSE
		YoungParticleAffectThreshold 0.000000
		UseOldParticleAffectThreshold FALSE
		OldParticleAffectThreshold 0.000000
		AffectAttachedParticles TRUE
		numAttachedEmitters 1
		attachedEmitterName "Trail"
		DoFadeOut TRUE
		FadeOutTime 1.000000
		DoFadeIn FALSE
		FadeInTime 1.000000
	length 0.000000
