﻿TXT
ParticleSimulation
	HasInfiniteLifeTime FALSE
	TotalLifeTime 10.000000
	NumEmitters 1
	EmitterType "Sphere"
	EmitterContents
		Name "Flak Ring"
		Enabled TRUE
		EmitRate 4.000000
		HasInfiniteEmitCount FALSE
		MaxEmitCount 4
		hasEmitIntervals FALSE
		emitIntervalRunDuration 0.000000
		emitIntervalWaitDuration 0.000000
		ParticleLifeTime 0.600000
		ParticleMinStartLinearSpeed 0.000000
		ParticleMaxStartLinearSpeed 0.000000
		ParticleMinStartAngularSpeed 0.000000
		ParticleMaxStartAngularSpeed 0.000000
		ParticleMinStartRotation 0.000000
		ParticleMaxStartRotation 6.283185
		ParticleStartMass 1.000000
		ParticleStartColor ffffffff
		ParticleWidth 0.800000
		ParticleHeight 0.800000
		MeshName ""
		Position [ 0.000000 0.000000 0.000000 ]
		Orientation
			 [ 1.000000 0.000000 0.000000 ]
			 [ 0.000000 1.000000 0.000000 ]
			 [ 0.000000 0.000000 1.000000 ]
		RotateAboutForward 0.000000
		RotateAboutUp 0.000000
		RotateAboutCross 0.000000
		StartTime 0.600000
		HasInfiniteLifeTime FALSE
		TotalLifeTime 0.200000
		BillboardAnchor 0
		ParticleFacing 0
		PipelineEffectID "Particle_Additive.fx"
		AreParticlesAttached FALSE
		numTextures 2
		textureName ""
		textureName ""
		textureAnimationName "Exp20.texanim"
		textureAnimationSpawnType "SequentialFrames"
		textureAnimationOnParticleFPS 50.000000
		ParticlesRotate TRUE
		MeshParticleRotationAxisType 0
		MeshParticleRotationAxis [ 0.000000 0.100000 0.000000 ]
		RotationDirectionType 2
		SphereRadiusXMax 5.000000
		SphereRadiusXMin 5.000000
		SphereRadiusYMax 10.000000
		SphereRadiusYMin 10.000000
		SphereRadiusZMax 2.000000
		SphereRadiusZMin 2.000000
		ParticleMaxStartSpeedAzimuthalTangential 0.000000
		ParticleMaxStartSpeedPolarTangential 0.000000
		ScaleStartSpeedsByRadius FALSE
		SpawnAngleLatitudinalStart 0.349066
		SpawnAngleLatitudinalStop 3.141593
		SpawnAngleLongitudinalStart 0.698132
		SpawnAngleLongitudinalStop 6.283185
	NumAffectors 2
	AffectorType "LinearInflate"
	AffectorContents
		Name "Flak Inflate"
		Enabled TRUE
		StartTime 0.000000
		HasInfiniteLifeTime TRUE
		TotalLifeTime 0.000000
		UseYoungParticleAffectThreshold FALSE
		YoungParticleAffectThreshold 0.000000
		UseOldParticleAffectThreshold FALSE
		OldParticleAffectThreshold 0.000000
		AffectAttachedParticles TRUE
		numAttachedEmitters 1
		attachedEmitterName "Flak Ring"
		WidthInflateRate 45.000000
		HeightInflateRate 45.000000
	AffectorType "Fade"
	AffectorContents
		Name "Flak Fade"
		Enabled TRUE
		StartTime 0.000000
		HasInfiniteLifeTime TRUE
		TotalLifeTime 0.000000
		UseYoungParticleAffectThreshold FALSE
		YoungParticleAffectThreshold 0.000000
		UseOldParticleAffectThreshold FALSE
		OldParticleAffectThreshold 0.000000
		AffectAttachedParticles TRUE
		numAttachedEmitters 1
		attachedEmitterName "Flak Ring"
		DoFadeOut TRUE
		FadeOutTime 0.100000
		DoFadeIn TRUE
		FadeInTime 0.100000
	length 0.000000
